0	nan	nan	nan	nan
1	0.999912	-0.00339217	0.00715669	0.00720483
2	1.99927	-0.0134984	0.0255721	0.0255837
3	2.99844	-0.0309822	0.0536276	0.0535209
4	3.99775	-0.0542835	0.0906515	0.0908896
5	4.99412	-0.0854541	0.136883	0.135786
6	5.98842	-0.124793	0.190361	0.190371
7	6.98206	-0.171112	0.25216	0.253535
8	7.97201	-0.225128	0.320765	0.321865
9	8.96683	-0.286807	0.397969	0.398996
10	9.95419	-0.355671	0.485663	0.480542
11	10.9352	-0.433163	0.572878	0.571833
12	11.9163	-0.519062	0.668593	0.666262
13	12.8913	-0.616512	0.774371	0.779111
14	13.8613	-0.721912	0.887804	0.885736
15	14.8316	-0.842019	0.995087	0.999073
16	15.7788	-0.96713	1.11841	1.13028
17	16.7417	-1.10002	1.24557	1.24915
18	17.6913	-1.24575	1.37314	1.38019
19	18.6361	-1.40751	1.51308	1.53133
20	19.5729	-1.58209	1.65959	1.65731
21	20.4989	-1.77476	1.81336	1.81544
22	21.3973	-1.96905	1.96433	1.96466
23	22.3165	-2.18609	2.11887	2.1128
24	23.2043	-2.4102	2.28556	2.29248
25	24.0968	-2.62895	2.4504	2.44127
26	24.9682	-2.88369	2.58265	2.60612
27	25.8208	-3.18993	2.7891	2.76472
28	26.679	-3.49732	2.96581	2.95128
29	27.4957	-3.79443	3.1279	3.13429
30	28.2979	-4.08713	3.30691	3.31567
31	29.0793	-4.44463	3.50764	3.4972
32	29.917	-4.81744	3.68639	3.68927
33	30.6627	-5.19145	3.86814	3.87411
34	31.3692	-5.56925	4.02358	4.06078
35	32.1204	-6.03653	4.25925	4.25403
36	32.8271	-6.43131	4.4351	4.44789
37	33.4769	-6.87733	4.64217	4.67332
38	34.1229	-7.33242	4.84904	4.84183
39	34.7367	-7.83272	5.01965	5.06404
40	35.3638	-8.30652	5.22495	5.24618
41	35.9074	-8.89044	5.43915	5.45564
42	36.4888	-9.44407	5.6366	5.63475
43	36.9852	-10.0212	5.83422	5.8462
44	37.465	-10.6042	6.05108	6.04533
45	37.9234	-11.1957	6.26262	6.26478
46	38.351	-11.784	6.47908	6.48628
47	38.7355	-12.4274	6.70202	6.68426
48	39.0631	-13.1488	6.83043	6.9301
49	39.3284	-13.7842	7.05649	7.09618
50	39.7508	-14.5245	7.2762	7.3026
51	39.9099	-15.174	7.51315	7.51735
52	40.1179	-15.914	7.71844	7.72646
53	40.2032	-16.6303	7.93721	7.93593
54	40.398	-17.4146	8.11189	8.11598
55	40.43	-18.162	8.32279	8.40882
56	40.5157	-18.998	8.53972	8.54788
57	40.5282	-19.7376	8.72156	8.77657
58	40.4013	-20.4773	8.99745	8.99781
59	40.3013	-21.3463	9.14536	9.24118
60	40.198	-22.244	9.39833	9.44784
61	40.0386	-22.9004	9.57299	9.63461
62	39.7136	-23.8133	9.78853	9.8361
63	39.4458	-24.5475	10.0041	10.0432
64	39.0982	-25.4386	10.1731	10.2181
65	38.6849	-26.3279	10.3621	10.4161
66	38.2638	-27.0326	10.5646	10.6863
67	37.9345	-27.908	10.834	10.8665
68	37.2834	-28.8913	10.9526	11.0678
69	36.7937	-29.6699	11.2376	11.2518
70	36.1886	-30.3526	11.4316	11.4422
71	35.4573	-31.3117	11.6096	11.7597
72	34.7879	-32.0612	11.8479	11.8982
73	33.8362	-32.8533	12.0942	12.1303
74	33.1683	-33.6166	12.246	12.3263
75	32.2181	-34.4197	12.4792	12.5313
76	31.3213	-35.1158	12.7164	12.683
77	30.4974	-35.8579	12.8934	12.9003
78	29.5317	-36.6024	13.0156	12.9573
79	28.4213	-37.2724	13.2171	13.3014
80	27.3811	-38.0507	13.3839	13.4416
81	26.2444	-38.6762	13.6245	13.665
82	25.0774	-39.1956	13.734	13.8944
83	24.054	-39.798	14.0154	13.9358
84	22.7562	-40.4212	14.2241	14.2802
85	21.4891	-40.8192	14.3551	14.3693
86	20.0767	-41.5869	14.5701	14.5674
87	18.9221	-41.9754	14.7504	14.7753
88	17.5091	-42.5155	14.8004	14.8925
89	16.1799	-42.8478	15.0136	15.0657
90	14.8446	-43.2815	15.2563	15.3622
91	13.4309	-43.4912	15.4221	15.3915
92	11.9298	-43.972	15.6366	15.4974
93	10.4707	-44.3074	15.7423	15.8549
94	9.03867	-44.4398	15.9467	15.8182
95	7.51526	-44.6661	16.15	16.0777
96	6.02173	-44.8241	16.2276	16.1699
97	4.45896	-44.9775	16.4366	16.3513
98	3.01527	-45.0823	16.4505	16.5435
99	1.51968	-45.2193	16.7432	16.6874
100	0	0	0	0
